{
  "project_info": {
    "project_number": "900998133870",
    "firebase_url": "https://hire4hour-eaf49.firebaseio.com",
    "project_id": "hire4hour-eaf49",
    "storage_bucket": "hire4hour-eaf49.appspot.com"
  },
  "client": [
    {
      "client_info": {
        "mobilesdk_app_id": "1:900998133870:android:086a9a081dc39689",
        "android_client_info": {
          "package_name": "com.hire4work"
        }
      },
      "oauth_client": [
        {
          "client_id": "900998133870-ueukkqdvkld2ujtjetqkbga4oaosp7n8.apps.googleusercontent.com",
          "client_type": 1,
          "android_info": {
            "package_name": "com.hire4work",
            "certificate_hash": "4650b922ad9a7fc311cdde146db7536bfd56e895"
          }
        },
        {
          "client_id": "900998133870-c7uoc6pvrmpi6cccglhr3js82k2sc9fu.apps.googleusercontent.com",
          "client_type": 3
        }
      ],
      "api_key": [
        {
          "current_key": "AIzaSyAnIH7MwviGxPksU5P0Dl-R42ly56EdEAI"
        }
      ],
      "services": {
        "analytics_service": {
          "status": 1
        },
        "appinvite_service": {
          "status": 2,
          "other_platform_oauth_client": [
            {
              "client_id": "900998133870-c7uoc6pvrmpi6cccglhr3js82k2sc9fu.apps.googleusercontent.com",
              "client_type": 3
            }
          ]
        },
        "ads_service": {
          "status": 2
        }
      }
    }
  ],
  "configuration_version": "1"
}